%YAML 1.1
%TAG !u! tag:unity3d.com,2011:
--- !u!1 &1207475678520674784
GameObject:
  m_ObjectHideFlags: 0
  m_CorrespondingSourceObject: {fileID: 0}
  m_PrefabInstance: {fileID: 0}
  m_PrefabAsset: {fileID: 0}
  serializedVersion: 6
  m_Component:
  - component: {fileID: 2436719443762820250}
  - component: {fileID: 6962415426943523595}
  - component: {fileID: 1974512077033731671}
  m_Layer: 0
  m_Name: Layer1
  m_TagString: Untagged
  m_Icon: {fileID: 0}
  m_NavMeshLayer: 0
  m_StaticEditorFlags: 0
  m_IsActive: 1
--- !u!4 &2436719443762820250
Transform:
  m_ObjectHideFlags: 0
  m_CorrespondingSourceObject: {fileID: 0}
  m_PrefabInstance: {fileID: 0}
  m_PrefabAsset: {fileID: 0}
  m_GameObject: {fileID: 1207475678520674784}
  serializedVersion: 2
  m_LocalRotation: {x: -0, y: -0, z: -0, w: 1}
  m_LocalPosition: {x: 0, y: 0, z: 0}
  m_LocalScale: {x: 1, y: 1, z: 1}
  m_ConstrainProportionsScale: 0
  m_Children: []
  m_Father: {fileID: 1642586959053476098}
  m_LocalEulerAnglesHint: {x: 0, y: 0, z: 0}
--- !u!1839735485 &6962415426943523595
Tilemap:
  m_ObjectHideFlags: 0
  m_CorrespondingSourceObject: {fileID: 0}
  m_PrefabInstance: {fileID: 0}
  m_PrefabAsset: {fileID: 0}
  m_GameObject: {fileID: 1207475678520674784}
  m_Enabled: 1
  m_Tiles:
  - first: {x: -1, y: -7, z: 0}
    second:
      serializedVersion: 2
      m_TileIndex: 56
      m_TileSpriteIndex: 56
      m_TileMatrixIndex: 0
      m_TileColorIndex: 0
      m_TileObjectToInstantiateIndex: 65535
      dummyAlignment: 0
      m_AllTileFlags: 1073741825
  - first: {x: 0, y: -7, z: 0}
    second:
      serializedVersion: 2
      m_TileIndex: 57
      m_TileSpriteIndex: 57
      m_TileMatrixIndex: 0
      m_TileColorIndex: 0
      m_TileObjectToInstantiateIndex: 65535
      dummyAlignment: 0
      m_AllTileFlags: 1073741825
  - first: {x: 1, y: -7, z: 0}
    second:
      serializedVersion: 2
      m_TileIndex: 58
      m_TileSpriteIndex: 58
      m_TileMatrixIndex: 0
      m_TileColorIndex: 0
      m_TileObjectToInstantiateIndex: 65535
      dummyAlignment: 0
      m_AllTileFlags: 1073741825
  - first: {x: 2, y: -7, z: 0}
    second:
      serializedVersion: 2
      m_TileIndex: 59
      m_TileSpriteIndex: 59
      m_TileMatrixIndex: 0
      m_TileColorIndex: 0
      m_TileObjectToInstantiateIndex: 65535
      dummyAlignment: 0
      m_AllTileFlags: 1073741825
  - first: {x: 3, y: -7, z: 0}
    second:
      serializedVersion: 2
      m_TileIndex: 60
      m_TileSpriteIndex: 60
      m_TileMatrixIndex: 0
      m_TileColorIndex: 0
      m_TileObjectToInstantiateIndex: 65535
      dummyAlignment: 0
      m_AllTileFlags: 1073741825
  - first: {x: 4, y: -7, z: 0}
    second:
      serializedVersion: 2
      m_TileIndex: 61
      m_TileSpriteIndex: 61
      m_TileMatrixIndex: 0
      m_TileColorIndex: 0
      m_TileObjectToInstantiateIndex: 65535
      dummyAlignment: 0
      m_AllTileFlags: 1073741825
  - first: {x: 5, y: -7, z: 0}
    second:
      serializedVersion: 2
      m_TileIndex: 62
      m_TileSpriteIndex: 62
      m_TileMatrixIndex: 0
      m_TileColorIndex: 0
      m_TileObjectToInstantiateIndex: 65535
      dummyAlignment: 0
      m_AllTileFlags: 1073741825
  - first: {x: 6, y: -7, z: 0}
    second:
      serializedVersion: 2
      m_TileIndex: 63
      m_TileSpriteIndex: 63
      m_TileMatrixIndex: 0
      m_TileColorIndex: 0
      m_TileObjectToInstantiateIndex: 65535
      dummyAlignment: 0
      m_AllTileFlags: 1073741825
  - first: {x: -1, y: -6, z: 0}
    second:
      serializedVersion: 2
      m_TileIndex: 48
      m_TileSpriteIndex: 48
      m_TileMatrixIndex: 0
      m_TileColorIndex: 0
      m_TileObjectToInstantiateIndex: 65535
      dummyAlignment: 0
      m_AllTileFlags: 1073741825
  - first: {x: 0, y: -6, z: 0}
    second:
      serializedVersion: 2
      m_TileIndex: 49
      m_TileSpriteIndex: 49
      m_TileMatrixIndex: 0
      m_TileColorIndex: 0
      m_TileObjectToInstantiateIndex: 65535
      dummyAlignment: 0
      m_AllTileFlags: 1073741825
  - first: {x: 1, y: -6, z: 0}
    second:
      serializedVersion: 2
      m_TileIndex: 50
      m_TileSpriteIndex: 50
      m_TileMatrixIndex: 0
      m_TileColorIndex: 0
      m_TileObjectToInstantiateIndex: 65535
      dummyAlignment: 0
      m_AllTileFlags: 1073741825
  - first: {x: 2, y: -6, z: 0}
    second:
      serializedVersion: 2
      m_TileIndex: 51
      m_TileSpriteIndex: 51
      m_TileMatrixIndex: 0
      m_TileColorIndex: 0
      m_TileObjectToInstantiateIndex: 65535
      dummyAlignment: 0
      m_AllTileFlags: 1073741825
  - first: {x: 3, y: -6, z: 0}
    second:
      serializedVersion: 2
      m_TileIndex: 52
      m_TileSpriteIndex: 52
      m_TileMatrixIndex: 0
      m_TileColorIndex: 0
      m_TileObjectToInstantiateIndex: 65535
      dummyAlignment: 0
      m_AllTileFlags: 1073741825
  - first: {x: 4, y: -6, z: 0}
    second:
      serializedVersion: 2
      m_TileIndex: 53
      m_TileSpriteIndex: 53
      m_TileMatrixIndex: 0
      m_TileColorIndex: 0
      m_TileObjectToInstantiateIndex: 65535
      dummyAlignment: 0
      m_AllTileFlags: 1073741825
  - first: {x: 5, y: -6, z: 0}
    second:
      serializedVersion: 2
      m_TileIndex: 54
      m_TileSpriteIndex: 54
      m_TileMatrixIndex: 0
      m_TileColorIndex: 0
      m_TileObjectToInstantiateIndex: 65535
      dummyAlignment: 0
      m_AllTileFlags: 1073741825
  - first: {x: 6, y: -6, z: 0}
    second:
      serializedVersion: 2
      m_TileIndex: 55
      m_TileSpriteIndex: 55
      m_TileMatrixIndex: 0
      m_TileColorIndex: 0
      m_TileObjectToInstantiateIndex: 65535
      dummyAlignment: 0
      m_AllTileFlags: 1073741825
  - first: {x: -1, y: -5, z: 0}
    second:
      serializedVersion: 2
      m_TileIndex: 40
      m_TileSpriteIndex: 40
      m_TileMatrixIndex: 0
      m_TileColorIndex: 0
      m_TileObjectToInstantiateIndex: 65535
      dummyAlignment: 0
      m_AllTileFlags: 1073741825
  - first: {x: 0, y: -5, z: 0}
    second:
      serializedVersion: 2
      m_TileIndex: 41
      m_TileSpriteIndex: 41
      m_TileMatrixIndex: 0
      m_TileColorIndex: 0
      m_TileObjectToInstantiateIndex: 65535
      dummyAlignment: 0
      m_AllTileFlags: 1073741825
  - first: {x: 1, y: -5, z: 0}
    second:
      serializedVersion: 2
      m_TileIndex: 42
      m_TileSpriteIndex: 42
      m_TileMatrixIndex: 0
      m_TileColorIndex: 0
      m_TileObjectToInstantiateIndex: 65535
      dummyAlignment: 0
      m_AllTileFlags: 1073741825
  - first: {x: 2, y: -5, z: 0}
    second:
      serializedVersion: 2
      m_TileIndex: 43
      m_TileSpriteIndex: 43
      m_TileMatrixIndex: 0
      m_TileColorIndex: 0
      m_TileObjectToInstantiateIndex: 65535
      dummyAlignment: 0
      m_AllTileFlags: 1073741825
  - first: {x: 3, y: -5, z: 0}
    second:
      serializedVersion: 2
      m_TileIndex: 44
      m_TileSpriteIndex: 44
      m_TileMatrixIndex: 0
      m_TileColorIndex: 0
      m_TileObjectToInstantiateIndex: 65535
      dummyAlignment: 0
      m_AllTileFlags: 1073741825
  - first: {x: 4, y: -5, z: 0}
    second:
      serializedVersion: 2
      m_TileIndex: 45
      m_TileSpriteIndex: 45
      m_TileMatrixIndex: 0
      m_TileColorIndex: 0
      m_TileObjectToInstantiateIndex: 65535
      dummyAlignment: 0
      m_AllTileFlags: 1073741825
  - first: {x: 5, y: -5, z: 0}
    second:
      serializedVersion: 2
      m_TileIndex: 46
      m_TileSpriteIndex: 46
      m_TileMatrixIndex: 0
      m_TileColorIndex: 0
      m_TileObjectToInstantiateIndex: 65535
      dummyAlignment: 0
      m_AllTileFlags: 1073741825
  - first: {x: 6, y: -5, z: 0}
    second:
      serializedVersion: 2
      m_TileIndex: 47
      m_TileSpriteIndex: 47
      m_TileMatrixIndex: 0
      m_TileColorIndex: 0
      m_TileObjectToInstantiateIndex: 65535
      dummyAlignment: 0
      m_AllTileFlags: 1073741825
  - first: {x: -1, y: -4, z: 0}
    second:
      serializedVersion: 2
      m_TileIndex: 32
      m_TileSpriteIndex: 32
      m_TileMatrixIndex: 0
      m_TileColorIndex: 0
      m_TileObjectToInstantiateIndex: 65535
      dummyAlignment: 0
      m_AllTileFlags: 1073741825
  - first: {x: 0, y: -4, z: 0}
    second:
      serializedVersion: 2
      m_TileIndex: 33
      m_TileSpriteIndex: 33
      m_TileMatrixIndex: 0
      m_TileColorIndex: 0
      m_TileObjectToInstantiateIndex: 65535
      dummyAlignment: 0
      m_AllTileFlags: 1073741825
  - first: {x: 1, y: -4, z: 0}
    second:
      serializedVersion: 2
      m_TileIndex: 34
      m_TileSpriteIndex: 34
      m_TileMatrixIndex: 0
      m_TileColorIndex: 0
      m_TileObjectToInstantiateIndex: 65535
      dummyAlignment: 0
      m_AllTileFlags: 1073741825
  - first: {x: 2, y: -4, z: 0}
    second:
      serializedVersion: 2
      m_TileIndex: 35
      m_TileSpriteIndex: 35
      m_TileMatrixIndex: 0
      m_TileColorIndex: 0
      m_TileObjectToInstantiateIndex: 65535
      dummyAlignment: 0
      m_AllTileFlags: 1073741825
  - first: {x: 3, y: -4, z: 0}
    second:
      serializedVersion: 2
      m_TileIndex: 36
      m_TileSpriteIndex: 36
      m_TileMatrixIndex: 0
      m_TileColorIndex: 0
      m_TileObjectToInstantiateIndex: 65535
      dummyAlignment: 0
      m_AllTileFlags: 1073741825
  - first: {x: 4, y: -4, z: 0}
    second:
      serializedVersion: 2
      m_TileIndex: 37
      m_TileSpriteIndex: 37
      m_TileMatrixIndex: 0
      m_TileColorIndex: 0
      m_TileObjectToInstantiateIndex: 65535
      dummyAlignment: 0
      m_AllTileFlags: 1073741825
  - first: {x: 5, y: -4, z: 0}
    second:
      serializedVersion: 2
      m_TileIndex: 38
      m_TileSpriteIndex: 38
      m_TileMatrixIndex: 0
      m_TileColorIndex: 0
      m_TileObjectToInstantiateIndex: 65535
      dummyAlignment: 0
      m_AllTileFlags: 1073741825
  - first: {x: 6, y: -4, z: 0}
    second:
      serializedVersion: 2
      m_TileIndex: 39
      m_TileSpriteIndex: 39
      m_TileMatrixIndex: 0
      m_TileColorIndex: 0
      m_TileObjectToInstantiateIndex: 65535
      dummyAlignment: 0
      m_AllTileFlags: 1073741825
  - first: {x: -1, y: -3, z: 0}
    second:
      serializedVersion: 2
      m_TileIndex: 24
      m_TileSpriteIndex: 24
      m_TileMatrixIndex: 0
      m_TileColorIndex: 0
      m_TileObjectToInstantiateIndex: 65535
      dummyAlignment: 0
      m_AllTileFlags: 1073741825
  - first: {x: 0, y: -3, z: 0}
    second:
      serializedVersion: 2
      m_TileIndex: 25
      m_TileSpriteIndex: 25
      m_TileMatrixIndex: 0
      m_TileColorIndex: 0
      m_TileObjectToInstantiateIndex: 65535
      dummyAlignment: 0
      m_AllTileFlags: 1073741825
  - first: {x: 1, y: -3, z: 0}
    second:
      serializedVersion: 2
      m_TileIndex: 26
      m_TileSpriteIndex: 26
      m_TileMatrixIndex: 0
      m_TileColorIndex: 0
      m_TileObjectToInstantiateIndex: 65535
      dummyAlignment: 0
      m_AllTileFlags: 1073741825
  - first: {x: 2, y: -3, z: 0}
    second:
      serializedVersion: 2
      m_TileIndex: 27
      m_TileSpriteIndex: 27
      m_TileMatrixIndex: 0
      m_TileColorIndex: 0
      m_TileObjectToInstantiateIndex: 65535
      dummyAlignment: 0
      m_AllTileFlags: 1073741825
  - first: {x: 3, y: -3, z: 0}
    second:
      serializedVersion: 2
      m_TileIndex: 28
      m_TileSpriteIndex: 28
      m_TileMatrixIndex: 0
      m_TileColorIndex: 0
      m_TileObjectToInstantiateIndex: 65535
      dummyAlignment: 0
      m_AllTileFlags: 1073741825
  - first: {x: 4, y: -3, z: 0}
    second:
      serializedVersion: 2
      m_TileIndex: 29
      m_TileSpriteIndex: 29
      m_TileMatrixIndex: 0
      m_TileColorIndex: 0
      m_TileObjectToInstantiateIndex: 65535
      dummyAlignment: 0
      m_AllTileFlags: 1073741825
  - first: {x: 5, y: -3, z: 0}
    second:
      serializedVersion: 2
      m_TileIndex: 30
      m_TileSpriteIndex: 30
      m_TileMatrixIndex: 0
      m_TileColorIndex: 0
      m_TileObjectToInstantiateIndex: 65535
      dummyAlignment: 0
      m_AllTileFlags: 1073741825
  - first: {x: 6, y: -3, z: 0}
    second:
      serializedVersion: 2
      m_TileIndex: 31
      m_TileSpriteIndex: 31
      m_TileMatrixIndex: 0
      m_TileColorIndex: 0
      m_TileObjectToInstantiateIndex: 65535
      dummyAlignment: 0
      m_AllTileFlags: 1073741825
  - first: {x: -1, y: -2, z: 0}
    second:
      serializedVersion: 2
      m_TileIndex: 16
      m_TileSpriteIndex: 16
      m_TileMatrixIndex: 0
      m_TileColorIndex: 0
      m_TileObjectToInstantiateIndex: 65535
      dummyAlignment: 0
      m_AllTileFlags: 1073741825
  - first: {x: 0, y: -2, z: 0}
    second:
      serializedVersion: 2
      m_TileIndex: 17
      m_TileSpriteIndex: 17
      m_TileMatrixIndex: 0
      m_TileColorIndex: 0
      m_TileObjectToInstantiateIndex: 65535
      dummyAlignment: 0
      m_AllTileFlags: 1073741825
  - first: {x: 1, y: -2, z: 0}
    second:
      serializedVersion: 2
      m_TileIndex: 18
      m_TileSpriteIndex: 18
      m_TileMatrixIndex: 0
      m_TileColorIndex: 0
      m_TileObjectToInstantiateIndex: 65535
      dummyAlignment: 0
      m_AllTileFlags: 1073741825
  - first: {x: 2, y: -2, z: 0}
    second:
      serializedVersion: 2
      m_TileIndex: 19
      m_TileSpriteIndex: 19
      m_TileMatrixIndex: 0
      m_TileColorIndex: 0
      m_TileObjectToInstantiateIndex: 65535
      dummyAlignment: 0
      m_AllTileFlags: 1073741825
  - first: {x: 3, y: -2, z: 0}
    second:
      serializedVersion: 2
      m_TileIndex: 20
      m_TileSpriteIndex: 20
      m_TileMatrixIndex: 0
      m_TileColorIndex: 0
      m_TileObjectToInstantiateIndex: 65535
      dummyAlignment: 0
      m_AllTileFlags: 1073741825
  - first: {x: 4, y: -2, z: 0}
    second:
      serializedVersion: 2
      m_TileIndex: 21
      m_TileSpriteIndex: 21
      m_TileMatrixIndex: 0
      m_TileColorIndex: 0
      m_TileObjectToInstantiateIndex: 65535
      dummyAlignment: 0
      m_AllTileFlags: 1073741825
  - first: {x: 5, y: -2, z: 0}
    second:
      serializedVersion: 2
      m_TileIndex: 22
      m_TileSpriteIndex: 22
      m_TileMatrixIndex: 0
      m_TileColorIndex: 0
      m_TileObjectToInstantiateIndex: 65535
      dummyAlignment: 0
      m_AllTileFlags: 1073741825
  - first: {x: 6, y: -2, z: 0}
    second:
      serializedVersion: 2
      m_TileIndex: 23
      m_TileSpriteIndex: 23
      m_TileMatrixIndex: 0
      m_TileColorIndex: 0
      m_TileObjectToInstantiateIndex: 65535
      dummyAlignment: 0
      m_AllTileFlags: 1073741825
  - first: {x: -1, y: -1, z: 0}
    second:
      serializedVersion: 2
      m_TileIndex: 8
      m_TileSpriteIndex: 8
      m_TileMatrixIndex: 0
      m_TileColorIndex: 0
      m_TileObjectToInstantiateIndex: 65535
      dummyAlignment: 0
      m_AllTileFlags: 1073741825
  - first: {x: 0, y: -1, z: 0}
    second:
      serializedVersion: 2
      m_TileIndex: 9
      m_TileSpriteIndex: 9
      m_TileMatrixIndex: 0
      m_TileColorIndex: 0
      m_TileObjectToInstantiateIndex: 65535
      dummyAlignment: 0
      m_AllTileFlags: 1073741825
  - first: {x: 1, y: -1, z: 0}
    second:
      serializedVersion: 2
      m_TileIndex: 10
      m_TileSpriteIndex: 10
      m_TileMatrixIndex: 0
      m_TileColorIndex: 0
      m_TileObjectToInstantiateIndex: 65535
      dummyAlignment: 0
      m_AllTileFlags: 1073741825
  - first: {x: 2, y: -1, z: 0}
    second:
      serializedVersion: 2
      m_TileIndex: 11
      m_TileSpriteIndex: 11
      m_TileMatrixIndex: 0
      m_TileColorIndex: 0
      m_TileObjectToInstantiateIndex: 65535
      dummyAlignment: 0
      m_AllTileFlags: 1073741825
  - first: {x: 3, y: -1, z: 0}
    second:
      serializedVersion: 2
      m_TileIndex: 12
      m_TileSpriteIndex: 12
      m_TileMatrixIndex: 0
      m_TileColorIndex: 0
      m_TileObjectToInstantiateIndex: 65535
      dummyAlignment: 0
      m_AllTileFlags: 1073741825
  - first: {x: 4, y: -1, z: 0}
    second:
      serializedVersion: 2
      m_TileIndex: 13
      m_TileSpriteIndex: 13
      m_TileMatrixIndex: 0
      m_TileColorIndex: 0
      m_TileObjectToInstantiateIndex: 65535
      dummyAlignment: 0
      m_AllTileFlags: 1073741825
  - first: {x: 5, y: -1, z: 0}
    second:
      serializedVersion: 2
      m_TileIndex: 14
      m_TileSpriteIndex: 14
      m_TileMatrixIndex: 0
      m_TileColorIndex: 0
      m_TileObjectToInstantiateIndex: 65535
      dummyAlignment: 0
      m_AllTileFlags: 1073741825
  - first: {x: 6, y: -1, z: 0}
    second:
      serializedVersion: 2
      m_TileIndex: 15
      m_TileSpriteIndex: 15
      m_TileMatrixIndex: 0
      m_TileColorIndex: 0
      m_TileObjectToInstantiateIndex: 65535
      dummyAlignment: 0
      m_AllTileFlags: 1073741825
  - first: {x: -1, y: 0, z: 0}
    second:
      serializedVersion: 2
      m_TileIndex: 0
      m_TileSpriteIndex: 0
      m_TileMatrixIndex: 0
      m_TileColorIndex: 0
      m_TileObjectToInstantiateIndex: 65535
      dummyAlignment: 0
      m_AllTileFlags: 1073741825
  - first: {x: 0, y: 0, z: 0}
    second:
      serializedVersion: 2
      m_TileIndex: 1
      m_TileSpriteIndex: 1
      m_TileMatrixIndex: 0
      m_TileColorIndex: 0
      m_TileObjectToInstantiateIndex: 65535
      dummyAlignment: 0
      m_AllTileFlags: 1073741825
  - first: {x: 1, y: 0, z: 0}
    second:
      serializedVersion: 2
      m_TileIndex: 2
      m_TileSpriteIndex: 2
      m_TileMatrixIndex: 0
      m_TileColorIndex: 0
      m_TileObjectToInstantiateIndex: 65535
      dummyAlignment: 0
      m_AllTileFlags: 1073741825
  - first: {x: 2, y: 0, z: 0}
    second:
      serializedVersion: 2
      m_TileIndex: 3
      m_TileSpriteIndex: 3
      m_TileMatrixIndex: 0
      m_TileColorIndex: 0
      m_TileObjectToInstantiateIndex: 65535
      dummyAlignment: 0
      m_AllTileFlags: 1073741825
  - first: {x: 3, y: 0, z: 0}
    second:
      serializedVersion: 2
      m_TileIndex: 4
      m_TileSpriteIndex: 4
      m_TileMatrixIndex: 0
      m_TileColorIndex: 0
      m_TileObjectToInstantiateIndex: 65535
      dummyAlignment: 0
      m_AllTileFlags: 1073741825
  - first: {x: 4, y: 0, z: 0}
    second:
      serializedVersion: 2
      m_TileIndex: 5
      m_TileSpriteIndex: 5
      m_TileMatrixIndex: 0
      m_TileColorIndex: 0
      m_TileObjectToInstantiateIndex: 65535
      dummyAlignment: 0
      m_AllTileFlags: 1073741825
  - first: {x: 5, y: 0, z: 0}
    second:
      serializedVersion: 2
      m_TileIndex: 6
      m_TileSpriteIndex: 6
      m_TileMatrixIndex: 0
      m_TileColorIndex: 0
      m_TileObjectToInstantiateIndex: 65535
      dummyAlignment: 0
      m_AllTileFlags: 1073741825
  - first: {x: 6, y: 0, z: 0}
    second:
      serializedVersion: 2
      m_TileIndex: 7
      m_TileSpriteIndex: 7
      m_TileMatrixIndex: 0
      m_TileColorIndex: 0
      m_TileObjectToInstantiateIndex: 65535
      dummyAlignment: 0
      m_AllTileFlags: 1073741825
  m_AnimatedTiles: {}
  m_TileAssetArray:
  - m_RefCount: 1
    m_Data: {fileID: 11400000, guid: feddd91e50627f94eacc771c9daa4e36, type: 2}
  - m_RefCount: 1
    m_Data: {fileID: 11400000, guid: faaf0bb4da979ab49acbd9a6adb17e09, type: 2}
  - m_RefCount: 1
    m_Data: {fileID: 11400000, guid: 3e639bfdddf6d36449e54d6056f8aca7, type: 2}
  - m_RefCount: 1
    m_Data: {fileID: 11400000, guid: b4994f74b14fcea41aeea09f0c24e99d, type: 2}
  - m_RefCount: 1
    m_Data: {fileID: 11400000, guid: 5e5907ce41b65444ca1ae32452172d73, type: 2}
  - m_RefCount: 1
    m_Data: {fileID: 11400000, guid: 08a2a8e47ce683842b4645b66eb8fe1e, type: 2}
  - m_RefCount: 1
    m_Data: {fileID: 11400000, guid: c99b64c048370b640beb0a02f6f5c63c, type: 2}
  - m_RefCount: 1
    m_Data: {fileID: 11400000, guid: 46de2b1a59ba89846b0f17a13195a46f, type: 2}
  - m_RefCount: 1
    m_Data: {fileID: 11400000, guid: a36f8ba239c4c1c45976a43d19cf1851, type: 2}
  - m_RefCount: 1
    m_Data: {fileID: 11400000, guid: acb663f4446bfc646b29884010a980e6, type: 2}
  - m_RefCount: 1
    m_Data: {fileID: 11400000, guid: a5aacea1be218e54bbfbd5f6562cbda2, type: 2}
  - m_RefCount: 1
    m_Data: {fileID: 11400000, guid: bba6ab7b05bdb12418f71d4e1615e1b0, type: 2}
  - m_RefCount: 1
    m_Data: {fileID: 11400000, guid: 2f7225aba4f41dd4c88f11641e557383, type: 2}
  - m_RefCount: 1
    m_Data: {fileID: 11400000, guid: 640189dbe3574cb4abd2d2775120360d, type: 2}
  - m_RefCount: 1
    m_Data: {fileID: 11400000, guid: fee9f0db47cb47c44bc4e6c636ec3c74, type: 2}
  - m_RefCount: 1
    m_Data: {fileID: 11400000, guid: edc395c88ee4a8f43bc0708bb0dbcde1, type: 2}
  - m_RefCount: 1
    m_Data: {fileID: 11400000, guid: 36331e075f2ba574595cc949ce3b501e, type: 2}
  - m_RefCount: 1
    m_Data: {fileID: 11400000, guid: e44268a7711c61d428ee2a4bd5141d30, type: 2}
  - m_RefCount: 1
    m_Data: {fileID: 11400000, guid: 6c91fba1bce91bc4ba4689ac39e37ea5, type: 2}
  - m_RefCount: 1
    m_Data: {fileID: 11400000, guid: 887a50a03eff9334aa7b5b14981c3b45, type: 2}
  - m_RefCount: 1
    m_Data: {fileID: 11400000, guid: 75bbf71a552c0f3409860a10713c542f, type: 2}
  - m_RefCount: 1
    m_Data: {fileID: 11400000, guid: 9efcc2cde9bc4a540a7eff955c3d201d, type: 2}
  - m_RefCount: 1
    m_Data: {fileID: 11400000, guid: e7050035232449343af49c92f07a09a7, type: 2}
  - m_RefCount: 1
    m_Data: {fileID: 11400000, guid: 5946454dee7422e4082d1abe1cabab69, type: 2}
  - m_RefCount: 1
    m_Data: {fileID: 11400000, guid: 85ae9c2b38448d14e98cfdd5d5beebdf, type: 2}
  - m_RefCount: 1
    m_Data: {fileID: 11400000, guid: 9bc0492904532df41b22b7381cecf9b3, type: 2}
  - m_RefCount: 1
    m_Data: {fileID: 11400000, guid: 18b2d7547148aa04d93069ca265697be, type: 2}
  - m_RefCount: 1
    m_Data: {fileID: 11400000, guid: 108925b0743aa9944a4ca882c30395d0, type: 2}
  - m_RefCount: 1
    m_Data: {fileID: 11400000, guid: 205526848f5aa9546854fc9f96d6cabd, type: 2}
  - m_RefCount: 1
    m_Data: {fileID: 11400000, guid: 107e380efcdf062429785616f183e502, type: 2}
  - m_RefCount: 1
    m_Data: {fileID: 11400000, guid: f8016474e2876e7449610537d342cfcd, type: 2}
  - m_RefCount: 1
    m_Data: {fileID: 11400000, guid: 1c424ec474807de419d23f375688cd36, type: 2}
  - m_RefCount: 1
    m_Data: {fileID: 11400000, guid: fd71136427cb58d44821c415bb809f9d, type: 2}
  - m_RefCount: 1
    m_Data: {fileID: 11400000, guid: 1ecb2fbe3441a1d469a89366f2282cc6, type: 2}
  - m_RefCount: 1
    m_Data: {fileID: 11400000, guid: 50e472badf65f964798dde652795328a, type: 2}
  - m_RefCount: 1
    m_Data: {fileID: 11400000, guid: 88e8ea97635cb034889b8cf6e2a777a5, type: 2}
  - m_RefCount: 1
    m_Data: {fileID: 11400000, guid: 416436cfc7193204481d660dcd9bc718, type: 2}
  - m_RefCount: 1
    m_Data: {fileID: 11400000, guid: c67cec80a48bb474ba59374a0866c542, type: 2}
  - m_RefCount: 1
    m_Data: {fileID: 11400000, guid: afc1d8603744d4d4b88b3c0157c325c5, type: 2}
  - m_RefCount: 1
    m_Data: {fileID: 11400000, guid: edf258ed0274f194cbee3bb5eb0ac0cf, type: 2}
  - m_RefCount: 1
    m_Data: {fileID: 11400000, guid: 210d3842c2e99a64daf17a98c38be9bc, type: 2}
  - m_RefCount: 1
    m_Data: {fileID: 11400000, guid: 42b29ad4a5092d342b556818c708da8b, type: 2}
  - m_RefCount: 1
    m_Data: {fileID: 11400000, guid: aaad9d7e2b0e93d4f8668061bb26fe30, type: 2}
  - m_RefCount: 1
    m_Data: {fileID: 11400000, guid: 982f5963b691bf644a75bff4761539c1, type: 2}
  - m_RefCount: 1
    m_Data: {fileID: 11400000, guid: fd5527d580d7cde4c943dfa540a88a0d, type: 2}
  - m_RefCount: 1
    m_Data: {fileID: 11400000, guid: f93566ecd7955474aa0990b0a51d6ca8, type: 2}
  - m_RefCount: 1
    m_Data: {fileID: 11400000, guid: fb94fd7ad541d0246b2a7793f4ca7785, type: 2}
  - m_RefCount: 1
    m_Data: {fileID: 11400000, guid: 07a0ea2abe2862a4199e50e79a29ddc2, type: 2}
  - m_RefCount: 1
    m_Data: {fileID: 11400000, guid: 3bd342d241beffe45846f76531a8b711, type: 2}
  - m_RefCount: 1
    m_Data: {fileID: 11400000, guid: b5650c9ca0867f64f9ffd66c9bd9f759, type: 2}
  - m_RefCount: 1
    m_Data: {fileID: 11400000, guid: 700b4e1608382fa409ec4545dcf642f0, type: 2}
  - m_RefCount: 1
    m_Data: {fileID: 11400000, guid: b6ef7410c12d8fc4997f435f1a7e5543, type: 2}
  - m_RefCount: 1
    m_Data: {fileID: 11400000, guid: b36af23e66255514b8e9ec427c9cb353, type: 2}
  - m_RefCount: 1
    m_Data: {fileID: 11400000, guid: 188146bc279d50d4db0fe47256e0c60b, type: 2}
  - m_RefCount: 1
    m_Data: {fileID: 11400000, guid: 46d079853dfe94d4b89a7067783a3df5, type: 2}
  - m_RefCount: 1
    m_Data: {fileID: 11400000, guid: 71f474b72c4bb854883d8f8e11b23e60, type: 2}
  - m_RefCount: 1
    m_Data: {fileID: 11400000, guid: 176d9d9969e17cc4aa175c8dcd5b3169, type: 2}
  - m_RefCount: 1
    m_Data: {fileID: 11400000, guid: b51cfc48fd059a2499db5c7abb23c510, type: 2}
  - m_RefCount: 1
    m_Data: {fileID: 11400000, guid: abb73b1ef0d5823439b6ef9d8e97d700, type: 2}
  - m_RefCount: 1
    m_Data: {fileID: 11400000, guid: e9148b2c6570ced458dda4ca808e2861, type: 2}
  - m_RefCount: 1
    m_Data: {fileID: 11400000, guid: 47b5c90dfed99cc49bcd3411db2a6764, type: 2}
  - m_RefCount: 1
    m_Data: {fileID: 11400000, guid: 260df1941754f4643ba93ceed0c862c7, type: 2}
  - m_RefCount: 1
    m_Data: {fileID: 11400000, guid: e5c5fad3e2e025c4c88ade18bf92a386, type: 2}
  - m_RefCount: 1
    m_Data: {fileID: 11400000, guid: 5d3eece9dddbde24fbf998b934f975c1, type: 2}
  m_TileSpriteArray:
  - m_RefCount: 1
    m_Data: {fileID: -709340768, guid: dbbe74c130b70ec4bb0144e094278c5b, type: 3}
  - m_RefCount: 1
    m_Data: {fileID: -2082448906, guid: dbbe74c130b70ec4bb0144e094278c5b, type: 3}
  - m_RefCount: 1
    m_Data: {fileID: 1545472529, guid: dbbe74c130b70ec4bb0144e094278c5b, type: 3}
  - m_RefCount: 1
    m_Data: {fileID: 2027442797, guid: dbbe74c130b70ec4bb0144e094278c5b, type: 3}
  - m_RefCount: 1
    m_Data: {fileID: 564561929, guid: dbbe74c130b70ec4bb0144e094278c5b, type: 3}
  - m_RefCount: 1
    m_Data: {fileID: -356914850, guid: dbbe74c130b70ec4bb0144e094278c5b, type: 3}
  - m_RefCount: 1
    m_Data: {fileID: 816631990, guid: dbbe74c130b70ec4bb0144e094278c5b, type: 3}
  - m_RefCount: 1
    m_Data: {fileID: 1363799369, guid: dbbe74c130b70ec4bb0144e094278c5b, type: 3}
  - m_RefCount: 1
    m_Data: {fileID: -945897366, guid: dbbe74c130b70ec4bb0144e094278c5b, type: 3}
  - m_RefCount: 1
    m_Data: {fileID: 147977027, guid: dbbe74c130b70ec4bb0144e094278c5b, type: 3}
  - m_RefCount: 1
    m_Data: {fileID: -1416404299, guid: dbbe74c130b70ec4bb0144e094278c5b, type: 3}
  - m_RefCount: 1
    m_Data: {fileID: -974083374, guid: dbbe74c130b70ec4bb0144e094278c5b, type: 3}
  - m_RefCount: 1
    m_Data: {fileID: -124907086, guid: dbbe74c130b70ec4bb0144e094278c5b, type: 3}
  - m_RefCount: 1
    m_Data: {fileID: -144275679, guid: dbbe74c130b70ec4bb0144e094278c5b, type: 3}
  - m_RefCount: 1
    m_Data: {fileID: 819167803, guid: dbbe74c130b70ec4bb0144e094278c5b, type: 3}
  - m_RefCount: 1
    m_Data: {fileID: 1006275421, guid: dbbe74c130b70ec4bb0144e094278c5b, type: 3}
  - m_RefCount: 1
    m_Data: {fileID: -964730084, guid: dbbe74c130b70ec4bb0144e094278c5b, type: 3}
  - m_RefCount: 1
    m_Data: {fileID: 1450150274, guid: dbbe74c130b70ec4bb0144e094278c5b, type: 3}
  - m_RefCount: 1
    m_Data: {fileID: -703219704, guid: dbbe74c130b70ec4bb0144e094278c5b, type: 3}
  - m_RefCount: 1
    m_Data: {fileID: 1327488655, guid: dbbe74c130b70ec4bb0144e094278c5b, type: 3}
  - m_RefCount: 1
    m_Data: {fileID: 746931859, guid: dbbe74c130b70ec4bb0144e094278c5b, type: 3}
  - m_RefCount: 1
    m_Data: {fileID: 1329013421, guid: dbbe74c130b70ec4bb0144e094278c5b, type: 3}
  - m_RefCount: 1
    m_Data: {fileID: 2137024093, guid: dbbe74c130b70ec4bb0144e094278c5b, type: 3}
  - m_RefCount: 1
    m_Data: {fileID: 1180386172, guid: dbbe74c130b70ec4bb0144e094278c5b, type: 3}
  - m_RefCount: 1
    m_Data: {fileID: 942361935, guid: dbbe74c130b70ec4bb0144e094278c5b, type: 3}
  - m_RefCount: 1
    m_Data: {fileID: 52416530, guid: dbbe74c130b70ec4bb0144e094278c5b, type: 3}
  - m_RefCount: 1
    m_Data: {fileID: 2075324037, guid: dbbe74c130b70ec4bb0144e094278c5b, type: 3}
  - m_RefCount: 1
    m_Data: {fileID: 1945770204, guid: dbbe74c130b70ec4bb0144e094278c5b, type: 3}
  - m_RefCount: 1
    m_Data: {fileID: -1567437691, guid: dbbe74c130b70ec4bb0144e094278c5b, type: 3}
  - m_RefCount: 1
    m_Data: {fileID: 583792695, guid: dbbe74c130b70ec4bb0144e094278c5b, type: 3}
  - m_RefCount: 1
    m_Data: {fileID: -1277545304, guid: dbbe74c130b70ec4bb0144e094278c5b, type: 3}
  - m_RefCount: 1
    m_Data: {fileID: -1905354455, guid: dbbe74c130b70ec4bb0144e094278c5b, type: 3}
  - m_RefCount: 1
    m_Data: {fileID: -2036307890, guid: dbbe74c130b70ec4bb0144e094278c5b, type: 3}
  - m_RefCount: 1
    m_Data: {fileID: 1039629106, guid: dbbe74c130b70ec4bb0144e094278c5b, type: 3}
  - m_RefCount: 1
    m_Data: {fileID: -1851665580, guid: dbbe74c130b70ec4bb0144e094278c5b, type: 3}
  - m_RefCount: 1
    m_Data: {fileID: -603072967, guid: dbbe74c130b70ec4bb0144e094278c5b, type: 3}
  - m_RefCount: 1
    m_Data: {fileID: -1019715160, guid: dbbe74c130b70ec4bb0144e094278c5b, type: 3}
  - m_RefCount: 1
    m_Data: {fileID: -857376255, guid: dbbe74c130b70ec4bb0144e094278c5b, type: 3}
  - m_RefCount: 1
    m_Data: {fileID: 1507802213, guid: dbbe74c130b70ec4bb0144e094278c5b, type: 3}
  - m_RefCount: 1
    m_Data: {fileID: 1669737430, guid: dbbe74c130b70ec4bb0144e094278c5b, type: 3}
  - m_RefCount: 1
    m_Data: {fileID: -2143388338, guid: dbbe74c130b70ec4bb0144e094278c5b, type: 3}
  - m_RefCount: 1
    m_Data: {fileID: 1544198002, guid: dbbe74c130b70ec4bb0144e094278c5b, type: 3}
  - m_RefCount: 1
    m_Data: {fileID: -8271776, guid: dbbe74c130b70ec4bb0144e094278c5b, type: 3}
  - m_RefCount: 1
    m_Data: {fileID: 333140823, guid: dbbe74c130b70ec4bb0144e094278c5b, type: 3}
  - m_RefCount: 1
    m_Data: {fileID: 1421293171, guid: dbbe74c130b70ec4bb0144e094278c5b, type: 3}
  - m_RefCount: 1
    m_Data: {fileID: 966796798, guid: dbbe74c130b70ec4bb0144e094278c5b, type: 3}
  - m_RefCount: 1
    m_Data: {fileID: -352838375, guid: dbbe74c130b70ec4bb0144e094278c5b, type: 3}
  - m_RefCount: 1
    m_Data: {fileID: 168357530, guid: dbbe74c130b70ec4bb0144e094278c5b, type: 3}
  - m_RefCount: 1
    m_Data: {fileID: -1385751559, guid: dbbe74c130b70ec4bb0144e094278c5b, type: 3}
  - m_RefCount: 1
    m_Data: {fileID: 256841701, guid: dbbe74c130b70ec4bb0144e094278c5b, type: 3}
  - m_RefCount: 1
    m_Data: {fileID: -718239296, guid: dbbe74c130b70ec4bb0144e094278c5b, type: 3}
  - m_RefCount: 1
    m_Data: {fileID: 587377906, guid: dbbe74c130b70ec4bb0144e094278c5b, type: 3}
  - m_RefCount: 1
    m_Data: {fileID: 131733703, guid: dbbe74c130b70ec4bb0144e094278c5b, type: 3}
  - m_RefCount: 1
    m_Data: {fileID: 432817312, guid: dbbe74c130b70ec4bb0144e094278c5b, type: 3}
  - m_RefCount: 1
    m_Data: {fileID: -1728385966, guid: dbbe74c130b70ec4bb0144e094278c5b, type: 3}
  - m_RefCount: 1
    m_Data: {fileID: 115677563, guid: dbbe74c130b70ec4bb0144e094278c5b, type: 3}
  - m_RefCount: 1
    m_Data: {fileID: -280627835, guid: dbbe74c130b70ec4bb0144e094278c5b, type: 3}
  - m_RefCount: 1
    m_Data: {fileID: 707803770, guid: dbbe74c130b70ec4bb0144e094278c5b, type: 3}
  - m_RefCount: 1
    m_Data: {fileID: -318286740, guid: dbbe74c130b70ec4bb0144e094278c5b, type: 3}
  - m_RefCount: 1
    m_Data: {fileID: 1042520548, guid: dbbe74c130b70ec4bb0144e094278c5b, type: 3}
  - m_RefCount: 1
    m_Data: {fileID: -2005418774, guid: dbbe74c130b70ec4bb0144e094278c5b, type: 3}
  - m_RefCount: 1
    m_Data: {fileID: -2138579418, guid: dbbe74c130b70ec4bb0144e094278c5b, type: 3}
  - m_RefCount: 1
    m_Data: {fileID: 529609794, guid: dbbe74c130b70ec4bb0144e094278c5b, type: 3}
  - m_RefCount: 1
    m_Data: {fileID: -1647682602, guid: dbbe74c130b70ec4bb0144e094278c5b, type: 3}
  m_TileMatrixArray:
  - m_RefCount: 64
    m_Data:
      e00: 1
      e01: 0
      e02: 0
      e03: 0
      e10: 0
      e11: 1
      e12: 0
      e13: 0
      e20: 0
      e21: 0
      e22: 1
      e23: 0
      e30: 0
      e31: 0
      e32: 0
      e33: 1
  m_TileColorArray:
  - m_RefCount: 64
    m_Data: {r: 1, g: 1, b: 1, a: 1}
  m_TileObjectToInstantiateArray: []
  m_AnimationFrameRate: 1
  m_Color: {r: 1, g: 1, b: 1, a: 1}
  m_Origin: {x: -1, y: -7, z: 0}
  m_Size: {x: 8, y: 8, z: 1}
  m_TileAnchor: {x: 0.5, y: 0.5, z: 0}
  m_TileOrientation: 0
  m_TileOrientationMatrix:
    e00: 1
    e01: 0
    e02: 0
    e03: 0
    e10: 0
    e11: 1
    e12: 0
    e13: 0
    e20: 0
    e21: 0
    e22: 1
    e23: 0
    e30: 0
    e31: 0
    e32: 0
    e33: 1
--- !u!483693784 &1974512077033731671
TilemapRenderer:
  m_ObjectHideFlags: 0
  m_CorrespondingSourceObject: {fileID: 0}
  m_PrefabInstance: {fileID: 0}
  m_PrefabAsset: {fileID: 0}
  m_GameObject: {fileID: 1207475678520674784}
  m_Enabled: 1
  m_CastShadows: 0
  m_ReceiveShadows: 0
  m_DynamicOccludee: 0
  m_StaticShadowCaster: 0
  m_MotionVectors: 1
  m_LightProbeUsage: 0
  m_ReflectionProbeUsage: 0
  m_RayTracingMode: 0
  m_RayTraceProcedural: 0
  m_RenderingLayerMask: 1
  m_RendererPriority: 0
  m_Materials:
  - {fileID: 10754, guid: 0000000000000000f000000000000000, type: 0}
  m_StaticBatchInfo:
    firstSubMesh: 0
    subMeshCount: 0
  m_StaticBatchRoot: {fileID: 0}
  m_ProbeAnchor: {fileID: 0}
  m_LightProbeVolumeOverride: {fileID: 0}
  m_ScaleInLightmap: 1
  m_ReceiveGI: 1
  m_PreserveUVs: 0
  m_IgnoreNormalsForChartDetection: 0
  m_ImportantGI: 0
  m_StitchLightmapSeams: 1
  m_SelectedEditorRenderState: 0
  m_MinimumChartSize: 4
  m_AutoUVMaxDistance: 0.5
  m_AutoUVMaxAngle: 89
  m_LightmapParameters: {fileID: 0}
  m_SortingLayerID: 0
  m_SortingLayer: 0
  m_SortingOrder: 0
  m_ChunkSize: {x: 32, y: 32, z: 32}
  m_ChunkCullingBounds: {x: 0, y: 0, z: 0}
  m_MaxChunkCount: 16
  m_MaxFrameAge: 16
  m_SortOrder: 0
  m_Mode: 0
  m_DetectChunkCullingBounds: 0
  m_MaskInteraction: 0
--- !u!1 &4337730631272210534
GameObject:
  m_ObjectHideFlags: 0
  m_CorrespondingSourceObject: {fileID: 0}
  m_PrefabInstance: {fileID: 0}
  m_PrefabAsset: {fileID: 0}
  serializedVersion: 6
  m_Component:
  - component: {fileID: 1642586959053476098}
  - component: {fileID: 5093924539933427009}
  m_Layer: 0
  m_Name: GroundTiles
  m_TagString: Untagged
  m_Icon: {fileID: 0}
  m_NavMeshLayer: 0
  m_StaticEditorFlags: 0
  m_IsActive: 1
--- !u!4 &1642586959053476098
Transform:
  m_ObjectHideFlags: 0
  m_CorrespondingSourceObject: {fileID: 0}
  m_PrefabInstance: {fileID: 0}
  m_PrefabAsset: {fileID: 0}
  m_GameObject: {fileID: 4337730631272210534}
  serializedVersion: 2
  m_LocalRotation: {x: 0, y: 0, z: 0, w: 1}
  m_LocalPosition: {x: 0, y: 0, z: 0}
  m_LocalScale: {x: 1, y: 1, z: 1}
  m_ConstrainProportionsScale: 0
  m_Children:
  - {fileID: 2436719443762820250}
  m_Father: {fileID: 0}
  m_LocalEulerAnglesHint: {x: 0, y: 0, z: 0}
--- !u!156049354 &5093924539933427009
Grid:
  m_ObjectHideFlags: 0
  m_CorrespondingSourceObject: {fileID: 0}
  m_PrefabInstance: {fileID: 0}
  m_PrefabAsset: {fileID: 0}
  m_GameObject: {fileID: 4337730631272210534}
  m_Enabled: 1
  m_CellSize: {x: 16, y: 16, z: 0}
  m_CellGap: {x: 0, y: 0, z: 0}
  m_CellLayout: 0
  m_CellSwizzle: 0
--- !u!114 &5967502677337270403
MonoBehaviour:
  m_ObjectHideFlags: 0
  m_CorrespondingSourceObject: {fileID: 0}
  m_PrefabInstance: {fileID: 0}
  m_PrefabAsset: {fileID: 0}
  m_GameObject: {fileID: 0}
  m_Enabled: 1
  m_EditorHideFlags: 0
  m_Script: {fileID: 12395, guid: 0000000000000000e000000000000000, type: 0}
  m_Name: Palette Settings
  m_EditorClassIdentifier: 
  cellSizing: 0
  m_TransparencySortMode: 0
  m_TransparencySortAxis: {x: 0, y: 0, z: 1}
